{
  "@id": "tccrtglnkw7-",
  "@type": "Site",
  "siteType": "cropland",
  "latitude": -31.6,
  "longitude": 117.217,
  "defaultSource": {
    "@id": "rdnjnmrntrn9",
    "@type": "Source"
  },
  "country": {
    "@type": "Term",
    "name": "Australia",
    "termType": "region",
    "@id": "GADM-AUS"
  },
  "region": {
    "@type": "Term",
    "name": "Cunderdin",
    "termType": "region",
    "@id": "GADM-AUS.11.35_1"
  },
  "measurements": [
    {
      "@type": "Measurement",
      "term": {
        "@type": "Term",
        "@id": "clayContent",
        "name": "Clay content",
        "termType": "measurement",
        "units": "% (0-100)"
      },
      "source": {
        "@type": "Source",
        "@id": "_vkvj9bueita",
        "name": "Nachtergaele et al (2010)"
      },
      "gapFilled": [
        "source",
        "value",
        "statsDefinition",
        "depthUpper",
        "depthLower"
      ],
      "gapFilledVersion": [
        "0.3.1",
        "0.3.1",
        "0.3.1",
        "0.3.1",
        "0.3.1"
      ],
      "value": [
        21
      ],
      "depthUpper": 0,
      "depthLower": 30,
      "statsDefinition": "spatial"
    },
    {
      "@type": "Measurement",
      "term": {
        "@type": "Term",
        "@id": "drainageClass",
        "name": "Drainage Class",
        "termType": "measurement",
        "units": "number"
      },
      "gapFilled": [
        "term",
        "source",
        "value",
        "statsDefinition"
      ],
      "gapFilledVersion": [
        "0.3.1",
        "0.3.1",
        "0.3.1",
        "0.3.1"
      ],
      "source": {
        "@type": "Source",
        "@id": "source"
      },
      "value": [
        1
      ],
      "statsDefinition": "spatial"
    },
    {
      "@type": "Measurement",
      "term": {
        "@type": "Term",
        "@id": "eco-ClimateZone",
        "name": "Eco-Climate Zone",
        "termType": "measurement"
      },
      "gapFilled": [
        "term",
        "source",
        "value",
        "statsDefinition"
      ],
      "gapFilledVersion": [
        "0.3.1",
        "0.3.1",
        "0.3.1",
        "0.3.1"
      ],
      "source": {
        "@type": "Source",
        "@id": "source"
      },
      "value": [
        2
      ],
      "statsDefinition": "spatial"
    },
    {
      "@type": "Measurement",
      "term": {
        "@type": "Term",
        "@id": "erodibility",
        "name": "Erodibility",
        "termType": "measurement",
        "units": "t*h / MJ / mm"
      },
      "gapFilled": [
        "term",
        "source",
        "value",
        "statsDefinition"
      ],
      "gapFilledVersion": [
        "0.3.1",
        "0.3.1",
        "0.3.1",
        "0.3.1"
      ],
      "source": {
        "@type": "Source",
        "@id": "source"
      },
      "value": [
        0.034162906481892255
      ],
      "statsDefinition": "spatial"
    },
    {
      "@type": "Measurement",
      "term": {
        "@type": "Term",
        "@id": "fallowCorrection",
        "name": "Fallow correction",
        "termType": "measurement",
        "units": "ratio"
      },
      "gapFilled": [
        "term",
        "value",
        "statsDefinition"
      ],
      "gapFilledVersion": [
        "0.3.1",
        "0.3.1",
        "0.3.1"
      ],
      "value": [
        1.4246497253875017
      ],
      "statsDefinition": "spatial"
    },
    {
      "@type": "Measurement",
      "term": {
        "@type": "Term",
        "@id": "heavyWinterPrecipitation",
        "name": "Heavy winter precipitation",
        "termType": "measurement",
        "units": "1 = true; 0 = false"
      },
      "gapFilled": [
        "term",
        "source",
        "value",
        "statsDefinition"
      ],
      "gapFilledVersion": [
        "0.3.1",
        "0.3.1",
        "0.3.1",
        "0.3.1"
      ],
      "source": {
        "@type": "Source",
        "@id": "source"
      },
      "value": [
        0
      ],
      "statsDefinition": "spatial"
    },
    {
      "@type": "Measurement",
      "term": {
        "@type": "Term",
        "@id": "nutrientLossToAquaticEnvironment",
        "name": "Nutrient loss to aquatic environment",
        "termType": "measurement",
        "units": "% (0-100)"
      },
      "gapFilled": [
        "term",
        "source",
        "value",
        "statsDefinition"
      ],
      "gapFilledVersion": [
        "0.3.1",
        "0.3.1",
        "0.3.1",
        "0.3.1"
      ],
      "source": {
        "@type": "Source",
        "@id": "source"
      },
      "value": [
        5.0
      ],
      "statsDefinition": "spatial"
    },
    {
      "@type": "Measurement",
      "term": {
        "@type": "Term",
        "@id": "rainfallAnnual",
        "name": "Rainfall (annual)",
        "termType": "measurement",
        "units": "mm"
      },
      "gapFilled": [
        "term",
        "source",
        "value",
        "statsDefinition",
        "startDate",
        "endDate"
      ],
      "gapFilledVersion": [
        "0.3.1",
        "0.3.1",
        "0.3.1",
        "0.3.1",
        "0.3.1",
        "0.3.1"
      ],
      "source": {
        "@type": "Source",
        "@id": "source"
      },
      "value": [
        358.9277509599924
      ],
      "statsDefinition": "spatial",
      "startDate": "2006-01-01",
      "endDate": "2006-12-31"
    },
    {
      "term": {
        "@type": "Term",
        "name": "Rainfall (long-term annual mean)",
        "termType": "measurement",
        "@id": "rainfallLong-TermAnnualMean",
        "units": "mm"
      },
      "value": [
        368
      ],
      "@type": "Measurement"
    },
    {
      "@type": "Measurement",
      "term": {
        "@type": "Term",
        "@id": "sandContent",
        "name": "Sand content",
        "termType": "measurement",
        "units": "% (0-100)"
      },
      "source": {
        "@type": "Source",
        "@id": "_vkvj9bueita",
        "name": "Nachtergaele et al (2010)"
      },
      "gapFilled": [
        "source",
        "value",
        "statsDefinition",
        "depthUpper",
        "depthLower"
      ],
      "gapFilledVersion": [
        "0.3.1",
        "0.3.1",
        "0.3.1",
        "0.3.1",
        "0.3.1"
      ],
      "value": [
        36
      ],
      "depthUpper": 0,
      "depthLower": 30,
      "statsDefinition": "spatial"
    },
    {
      "@type": "Measurement",
      "term": {
        "@type": "Term",
        "@id": "siltContent",
        "name": "Silt content",
        "termType": "measurement",
        "units": "% (0-100)"
      },
      "source": {
        "@type": "Source",
        "@id": "_vkvj9bueita",
        "name": "Nachtergaele et al (2010)"
      },
      "gapFilled": [
        "source",
        "value",
        "statsDefinition",
        "depthUpper",
        "depthLower"
      ],
      "gapFilledVersion": [
        "0.3.1",
        "0.3.1",
        "0.3.1",
        "0.3.1",
        "0.3.1"
      ],
      "value": [
        43.0
      ],
      "depthUpper": 0,
      "depthLower": 30,
      "statsDefinition": "spatial"
    },
    {
      "@type": "Measurement",
      "term": {
        "@type": "Term",
        "@id": "slope",
        "name": "Slope",
        "termType": "measurement",
        "units": "% (0-100)"
      },
      "gapFilled": [
        "term",
        "source",
        "value",
        "statsDefinition"
      ],
      "gapFilledVersion": [
        "0.3.1",
        "0.3.1",
        "0.3.1",
        "0.3.1"
      ],
      "source": {
        "@type": "Source",
        "@id": "source"
      },
      "value": [
        2
      ],
      "statsDefinition": "spatial"
    },
    {
      "@type": "Measurement",
      "term": {
        "@type": "Term",
        "@id": "slopeLength",
        "name": "Slope length",
        "termType": "measurement",
        "units": "dimensionless"
      },
      "gapFilled": [
        "term",
        "source",
        "value",
        "statsDefinition"
      ],
      "gapFilledVersion": [
        "0.3.1",
        "0.3.1",
        "0.3.1",
        "0.3.1"
      ],
      "source": {
        "@type": "Source",
        "@id": "source"
      },
      "value": [
        2.780295025097772
      ],
      "statsDefinition": "spatial"
    },
    {
      "@type": "Measurement",
      "term": {
        "@type": "Term",
        "@id": "soilOrganicCarbonContent",
        "name": "Soil organic carbon content",
        "termType": "measurement",
        "units": "% (0-100)"
      },
      "gapFilled": [
        "term",
        "source",
        "value",
        "statsDefinition",
        "depthUpper",
        "depthLower"
      ],
      "gapFilledVersion": [
        "0.3.1",
        "0.3.1",
        "0.3.1",
        "0.3.1",
        "0.3.1",
        "0.3.1"
      ],
      "source": {
        "@type": "Source",
        "@id": "source"
      },
      "value": [
        0.53
      ],
      "depthUpper": 0,
      "depthLower": 30,
      "statsDefinition": "spatial"
    },
    {
      "@type": "Measurement",
      "term": {
        "@type": "Term",
        "@id": "soilPh",
        "name": "Soil pH",
        "termType": "measurement",
        "units": "unitless"
      },
      "gapFilled": [
        "term",
        "source",
        "value",
        "statsDefinition",
        "depthUpper",
        "depthLower"
      ],
      "gapFilledVersion": [
        "0.3.1",
        "0.3.1",
        "0.3.1",
        "0.3.1",
        "0.3.1",
        "0.3.1"
      ],
      "source": {
        "@type": "Source",
        "@id": "source"
      },
      "value": [
        8.2
      ],
      "depthUpper": 0,
      "depthLower": 30,
      "statsDefinition": "spatial"
    },
    {
      "@type": "Measurement",
      "term": {
        "@type": "Term",
        "@id": "soilPhosphorusContent",
        "name": "Soil phosphorus content",
        "termType": "measurement",
        "units": "mg P / kg soil"
      },
      "gapFilled": [
        "term",
        "source",
        "value",
        "statsDefinition",
        "depthUpper",
        "depthLower"
      ],
      "gapFilledVersion": [
        "0.3.1",
        "0.3.1",
        "0.3.1",
        "0.3.1",
        "0.3.1",
        "0.3.1"
      ],
      "source": {
        "@type": "Source",
        "@id": "source"
      },
      "value": [
        438.1128670812417
      ],
      "depthUpper": 0,
      "depthLower": 50,
      "statsDefinition": "spatial"
    },
    {
      "@type": "Measurement",
      "term": {
        "@type": "Term",
        "@id": "soilTotalNitrogenContent",
        "name": "Soil total nitrogen content",
        "termType": "measurement",
        "units": "mg N / kg soil"
      },
      "gapFilled": [
        "term",
        "source",
        "value",
        "statsDefinition",
        "depthUpper",
        "depthLower"
      ],
      "gapFilledVersion": [
        "0.3.1",
        "0.3.1",
        "0.3.1",
        "0.3.1",
        "0.3.1",
        "0.3.1"
      ],
      "source": {
        "@type": "Source",
        "@id": "source"
      },
      "value": [
        505.99998235702515
      ],
      "depthUpper": 0,
      "depthLower": 50,
      "statsDefinition": "spatial"
    },
    {
      "@type": "Measurement",
      "term": {
        "@type": "Term",
        "@id": "temperatureAnnual",
        "name": "Temperature (annual)",
        "termType": "measurement",
        "units": "degrees Celsius"
      },
      "gapFilled": [
        "term",
        "source",
        "value",
        "statsDefinition",
        "startDate",
        "endDate"
      ],
      "gapFilledVersion": [
        "0.3.1",
        "0.3.1",
        "0.3.1",
        "0.3.1",
        "0.3.1",
        "0.3.1"
      ],
      "source": {
        "@type": "Source",
        "@id": "source"
      },
      "value": [
        17.927606201171898
      ],
      "startDate": "2006-01-01",
      "endDate": "2006-12-31",
      "statsDefinition": "spatial"
    },
    {
      "term": {
        "@type": "Term",
        "name": "Temperature (long-term annual mean)",
        "termType": "measurement",
        "@id": "temperatureLong-TermAnnualMean",
        "units": "degrees Celsius"
      },
      "min": [
        11.4
      ],
      "max": [
        25.1
      ],
      "@type": "Measurement",
      "value": [
        18.25
      ],
      "gapFilled": [
        "value"
      ],
      "gapFilledVersion": [
        "0.3.1"
      ]
    }
  ],
  "schemaVersion": "2.13.0",
  "name": "Cropland - Cunderdin, Australia",
  "originalId": "1",
  "dataPrivate": false,
  "ecoregion": "AA1209",
  "awareWaterBasinId": "10407"
}
