[
  {
    "@type": "Practice",
    "term": {
      "@type": "Term",
      "@id": "orchardDensity"
    },
    "gapFilled": [
      "value"
    ],
    "gapFilledVersion": [
      "0.3.1"
    ],
    "value": 385.0
  }
]