[
  {
    "@type": "Measurement",
    "term": {
      "@type": "Term",
      "@id": "slope"
    },
    "value": [
      0.9984235984049623
    ],
    "statsDefinition": "spatial",
    "gapFilled": [
      "value",
      "statsDefinition"
    ],
    "gapFilledVersion": [
      "0.3.1",
      "0.3.1"
    ]
  }
]
