{
  "@id": "jGTHUwHZwx",
  "@type": "Cycle",
  "name": "fake cycle",
  "dataPrivate": false,
  "functionalUnitMeasure": "1 ha",
  "dataCompleteness": {
    "@type": "Completeness",
    "electricityFuel": true,
    "material": true,
    "fertilizer": true,
    "other": true,
    "pesticidesAntibiotics": true,
    "soilAmendments": true,
    "water": true,
    "products": true,
    "coProducts": true,
    "cropResidue": true,
    "manureManagement": true
  },
  "endDate": "2012",
  "cycleDuration": 365,
  "defaultSource": {
    "@id": "qzcsdcjziy",
    "@type": "Source"
  },
  "site": {
    "@id": "xRzCLgHSkD",
    "@type": "Site",
    "country": {
      "@id": "GADM-NPL",
      "@type": "Term",
      "name": "Nepal"
    }
  },
  "products": [
    {
      "term": {
        "@id": "genericCropGrain",
        "@type": "Term",
        "name": "Generic Crop, grain"
      },
      "value": [
        2900
      ],
      "economicValueShare": 5,
      "@type": "Product"
    },
    {
      "term": {
        "@id": "oatsGrain",
        "@type": "Term",
        "name": "Oats, grain"
      },
      "price": 0.227,
      "value": [
        2231.5
      ],
      "@type": "Product"
    },
    {
      "term": {
        "@id": "wheatGrain",
        "@type": "Term",
        "name": "Wheat, grain"
      },
      "value": [
        2231.5
      ],
      "@type": "Product"
    }
  ]
}
