[
  {
    "term": {
      "@id": "genericCropGrain",
      "@type": "Term",
      "name": "Generic Crop, grain"
    },
    "value": [
      2900
    ],
    "economicValueShare": 5,
    "@type": "Product"
  },
  {
    "term": {
      "@id": "oatsGrain",
      "@type": "Term",
      "name": "Oats, grain"
    },
    "price": 0.227,
    "value": [
      2231.5
    ],
    "@type": "Product",
    "revenue": 506.5505,
    "gapFilled": [
      "revenue",
      "economicValueShare",
      "primary"
    ],
    "gapFilledVersion": [
      "0.3.1",
      "0.3.1",
      "0.3.1"
    ],
    "economicValueShare": 91.18,
    "primary": true
  },
  {
    "term": {
      "@id": "wheatGrain",
      "@type": "Term",
      "name": "Wheat, grain"
    },
    "value": [
      2231.5
    ],
    "@type": "Product",
    "price": 14.7264037,
    "revenue": 32861.96985655,
    "economicValueShare": 91.18,
    "gapFilled": [
      "price",
      "revenue",
      "economicValueShare"
    ],
    "gapFilledVersion": [
      "0.3.1",
      "0.3.1",
      "0.3.1"
    ]
  }
]