{
  "@id": "PMWM-Z0AhtL",
  "@type": "Cycle",
  "name": "fake cycle",
  "functionalUnitMeasure": "1 ha",
  "defaultSource": {
    "@id": "5ihm4gitfjy",
    "@type": "Source"
  },
  "dataPrivate": false,
  "dataCompleteness": {
    "@type": "Completeness",
    "electricityFuel": true,
    "material": true,
    "fertilizer": true,
    "other": true,
    "pesticidesAntibiotics": true,
    "soilAmendments": true,
    "water": true,
    "products": true,
    "coProducts": true,
    "cropResidue": false,
    "manureManagement": true
  },
  "endDate": "2009",
  "cycleDuration": 365,
  "site": {
    "@id": "6glc42wZJE",
    "@type": "Site",
    "defaultSource": {
      "@id": "olcc1ydvrt",
      "@type": "Source"
    },
    "dataPrivate": false,
    "name": "Field -11.77, -45.72",
    "country": {
      "@id": "GADM-BRA",
      "@type": "Term",
      "name": "Brazil"
    },
    "latitude": -11.77,
    "longitude": -45.72,
    "siteType": "cropland"
  },
  "products": [
    {
      "term": {
        "@id": "wheatGrain",
        "name": "Wheat, grain",
        "@type": "Term"
      },
      "value": [
        2231.5
      ],
      "primary": true,
      "@type": "Product"
    },
    {
      "@type": "Product",
      "term": {
        "@id": "aboveGroundCropResidueTotal",
        "@type": "Term"
      },
      "value": [
        2965.7372
      ]
    }
  ],
  "practices": [
    {
      "term": {
        "@id": "previousProduct",
        "@type": "Term",
        "name": "Previous Product"
      },
      "value": "Rice, grain",
      "@type": "Practice"
    },
    {
      "term": {
        "@id": "numberOfIrrigations",
        "@type": "Term",
        "name": "Number of irrigations"
      },
      "value": "3",
      "@type": "Practice"
    },
    {
      "term": {
        "@id": "residueRemoved",
        "@type": "Term",
        "name": "Residue removed"
      },
      "value": "95",
      "@type": "Practice"
    },
    {
      "term": {
        "@id": "residueBurnt",
        "@type": "Term",
        "name": "Residue burnt"
      },
      "value": "0",
      "@type": "Practice"
    }
  ]
}
