{
  "cycles": [
    {
      "@id": "4em8wvpwy2lj",
      "endDate":"2012"
    },
    {
      "@id": "zv4re8jw8snw",
      "endDate":"2012"
    },
    {
      "@id": "ytp9bsoezf_s",
      "endDate":"2012"
    }
  ]
}
