{
  "@id": "m9cjfciwp8sx",
  "@type": "Site",
  "siteType": "cropland",
  "defaultSource": {
    "@id": "_ny-bkx5g4ub",
    "@type": "Source"
  },
  "country": {
    "@type": "Term",
    "name": "Nepal",
    "termType": "region",
    "@id": "GADM-NPL"
  },
  "region": {
    "@type": "Term",
    "name": "Pheta",
    "termType": "region",
    "@id": "GADM-NPL.1.3.1.74_1"
  },
  "description": "Farmers field",
  "measurements": [
    {
      "term": {
        "@type": "Term",
        "name": "Soil pH",
        "termType": "measurement",
        "@id": "soilPh",
        "units": "unitless"
      },
      "value": [
        5.7
      ],
      "@type": "Measurement"
    },
    {
      "term": {
        "@type": "Term",
        "name": "Soil organic matter content",
        "termType": "measurement",
        "@id": "soilOrganicMatterContent",
        "units": "% (0-100)"
      },
      "value": [
        4.98
      ],
      "@type": "Measurement"
    },
    {
      "term": {
        "@type": "Term",
        "name": "Soil total nitrogen content",
        "termType": "measurement",
        "@id": "soilTotalNitrogenContent",
        "units": "mg N / kg soil"
      },
      "value": [
        2409.9999999999995
      ],
      "@type": "Measurement"
    }
  ],
  "infrastructure": [
    {
      "term": {
        "@type": "Term",
        "name": "Tractor",
        "termType": "machinery",
        "@id": "tractor"
      },
      "lifespanHours": 12000,
      "mass": 2500,
      "@type": "Infrastructure"
    },
    {
      "term": {
        "@type": "Term",
        "name": "Cultivator",
        "termType": "machinery",
        "@id": "cultivator"
      },
      "lifespanHours": 6000,
      "mass": 400,
      "@type": "Infrastructure"
    },
    {
      "term": {
        "@type": "Term",
        "name": "Seed drill",
        "termType": "machinery",
        "@id": "seedDrill"
      },
      "lifespanHours": 2400,
      "mass": 400,
      "@type": "Infrastructure"
    },
    {
      "term": {
        "@type": "Term",
        "name": "Surface irrigation equipment",
        "termType": "irrigation",
        "@id": "surfaceIrrigationEquipment"
      },
      "lifespanHours": 10500,
      "mass": 50,
      "@type": "Infrastructure"
    }
  ],
  "schemaVersion": "2.13.0",
  "name": "Cropland - Pheta, Nepal - Farmers field",
  "originalId": "1",
  "dataPrivate": false
}
