[
  {
    "@type": "Measurement",
    "term": {
      "@id": "temperatureAnnual",
      "@type": "Term"
    },
    "value": [
      23.74699726168683
    ],
    "startDate": "2009-01-01",
    "endDate": "2009-12-31",
    "statsDefinition": "spatial",
    "gapFilled": [
      "value",
      "statsDefinition",
      "startDate",
      "endDate"
    ],
    "gapFilledVersion": [
      "0.3.1",
      "0.3.1",
      "0.3.1",
      "0.3.1"
    ]
  }
]
