{
  "@id": "PMWM-Z0AhtL",
  "@type": "Cycle",
  "name": "fake cycle",
  "functionalUnitMeasure": "1 ha",
  "defaultSource": {
    "@id": "5ihm4gitfjy",
    "@type": "Source"
  },
  "dataPrivate": false,
  "dataCompleteness": {
    "@type": "Completeness",
    "electricityFuel": true,
    "material": false,
    "fertilizer": true,
    "other": true,
    "pesticidesAntibiotics": true,
    "soilAmendments": true,
    "water": true,
    "products": true,
    "coProducts": true,
    "cropResidue": true,
    "manureManagement": true
  },
  "endDate": "2009",
  "cycleDuration": 365,
  "site": {
    "@id": "6glc42wZJE",
    "@type": "Site",
    "country": {
      "@id": "GADM-BRA",
      "@type": "Term",
      "name": "Brazil"
    },
    "siteType": "cropland"
  },
  "inputs": [
    {
      "term": {
        "@id": "diesel",
        "@type": "Term"
      },
      "value": [
        32.96
      ],
      "@type": "Input"
    },
    {
      "term": {
        "@id": "manureFreshKgMass",
        "@type": "Term"
      },
      "value": [
        384.53
      ],
      "gapFilled": ["value"],
      "@type": "Input",
      "gapFilledVersion": ["-1.0.0"]
    },
    {
      "term": {
        "@id": "beefCattleSolidManureFreshAsN",
        "@type": "Term"
      },
      "value": [
        0.00208
      ],
      "@type": "Input"
    }
  ]
}
