{
  "@id": "jGTHUwHZwx",
  "@type": "Cycle",
  "name": "fake cycle",
  "dataPrivate": false,
  "functionalUnitMeasure": "1 ha",
  "dataCompleteness": {
    "@type": "Completeness",
    "electricityFuel": true,
    "material": true,
    "fertilizer": true,
    "other": true,
    "pesticidesAntibiotics": true,
    "soilAmendments": true,
    "water": true,
    "products": true,
    "coProducts": true,
    "cropResidue": true,
    "manureManagement": true
  },
  "endDate": "2012",
  "cycleDuration": 365,
  "defaultSource": {
    "@id": "qzcsdcjziy",
    "@type": "Source"
  },
  "site": {
    "@id": "xRzCLgHSkD",
    "@type": "Site"
  },
  "inputs": [
    {
      "term": {
        "@id": "inorganicNitrogenFertilizerUnspecifiedAsN",
        "@type": "Term"
      },
      "value": [
        14.79
      ],
      "@type": "Input"
    },
    {
      "term": {
        "@id": "manureFreshKgMass",
        "@type": "Term"
      },
      "value": [
        384.53
      ],
      "gapFilled": ["value"],
      "@type": "Input",
      "gapFilledVersion": ["0.1.8"]
    },
    {
      "term": {
        "@id": "beefCattleSolidManureFreshAsN",
        "@type": "Term"
      },
      "value": [
        0.00208
      ],
      "@type": "Input"
    }
  ]
}
