[
  {
    "@type": "Product",
    "term": {
      "@type": "Term",
      "@id": "aboveGroundCropResidueTotal"
    },
    "value": [
      2715.0
    ],
    "gapFilled": [
      "value"
    ],
    "gapFilledVersion": [
      "0.3.1"
    ]
  }
]