{
  "@id": "6glc42wZJE",
  "@type": "Site",
  "defaultSource": {
    "@id": "olcc1ydvrt",
    "@type": "Source"
  },
  "dataPrivate": false,
  "name": "Field -11.77, -45.72",
  "country": {
    "@id": "GADM-BRA",
    "@type": "Term",
    "name": "Brazil"
  },
  "boundary": {
    "type": "FeatureCollection",
    "features": [
      {
        "type": "Feature",
        "properties": {},
        "geometry": {
          "type": "Polygon",
          "coordinates": [
            [
              [
                -45.737714767456055,
                -11.745277247440255
              ],
              [
                -45.76183319091797,
                -11.804178486149345
              ],
              [
                -45.717201232910156,
                -11.814932269624514
              ],
              [
                -45.699262619018555,
                -11.752504041175904
              ],
              [
                -45.737714767456055,
                -11.745277247440255
              ]
            ]
          ]
        }
      }
    ]
  },
  "siteType": "cropland"
}
