{
  "@id": "6Tjhe8tLzKx",
  "@type": "Site",
  "siteType": "cropland",
  "name": "Cropland - Nepal",
  "defaultSource": {
    "@id": "pgjz6eofzlw",
    "@type": "Source"
  },
  "country": {
    "@id": "GADM-NPL",
    "@type": "Term",
    "name": "Nepal"
  },
  "dataPrivate": false,
  "region": {
    "@id": "GADM-NPL.1.3.1.74_1",
    "@type": "Term",
    "name": "Pheta"
  },
  "ecoregion": "IM0701",
  "description": "Farmers field",
  "measurements": [
    {
      "term": {
        "@id": "soilPh",
        "@type": "Term"
      },
      "value": [
        5.7
      ],
      "@type": "Measurement"
    },
	{
      "term": {
        "@type": "Term",
        "@id": "heavyWinterPrecipitation"
      },
      "value": [
	    0
	  ],
	  "@type": "Measurement"
    },
    {
      "term": {
        "@id": "soilOrganicMatterContent",
        "@type": "Term"
      },
      "value": [
        4.98
      ],
      "@type": "Measurement"
    },
    {
      "term": {
        "@id": "soilTotalNitrogenContent",
        "@type": "Term"
      },
      "value": [
        2409.9999999999995
      ],
      "@type": "Measurement"
    },
    {
      "term": {
        "@id": "clayContent",
        "@type": "Term"
      },
      "value": [
        8
      ],
      "depthLower": 30,
      "depthUpper": 0,
      "@type": "Measurement"
    },
    {
      "term": {
        "@id": "sandContent",
        "@type": "Term"
      },
      "value": [
        81
      ],
      "depthLower": 30,
      "depthUpper": 0,
      "@type": "Measurement"
    },
    {
      "term": {
        "@id": "siltContent",
        "@type": "Term"
      },
      "value": [
        11
      ],
      "depthLower": 30,
      "depthUpper": 0,
      "@type": "Measurement"
    },
    {
      "term": {
        "@id": "soilOrganicCarbonContent",
        "@type": "Term"
      },
      "value": [
        0.58
      ],
      "depthLower": 30,
      "depthUpper": 0,
      "@type": "Measurement"
    },
    {
      "term": {
        "@id": "soilPhosphorusContent",
        "@type": "Term"
      },
      "value": [
        352.75
      ],
      "depthLower": 50,
      "depthUpper": 0,
      "@type": "Measurement"
    },
    {
      "term": {
        "@id": "slopeLength",
        "@type": "Term"
      },
      "value": [
        2.06439
      ],
      "@type": "Measurement"
    },
    {
      "term": {
        "@id": "slope",
        "@type": "Term"
      },
      "value": [
        0
      ],
      "@type": "Measurement"
    },
    {
      "term": {
        "@id": "drainageClass",
        "@type": "Term"
      },
      "value": [
        4
      ],
      "@type": "Measurement"
    },
    {
      "term": {
        "@id": "nutrientLossToAquaticEnvironment",
        "@type": "Term"
      },
      "value": [
        15
      ],
      "@type": "Measurement"
    },
    {
      "term": {
        "@id": "erodibility",
        "@type": "Term"
      },
      "value": [
        0.03287
      ],
      "@type": "Measurement"
    },
    {
      "term": {
        "@id": "rainfallAnnual",
        "@type": "Term"
      },
      "value": [
        1481
      ],
      "@type": "Measurement"
    },
    {
      "term": {
        "@id": "temperatureAnnual",
        "@type": "Term"
      },
      "value": [
        24.533333
      ],
      "@type": "Measurement"
    },
    {
      "term": {
        "@id": "eco-ClimateZone",
        "@type": "Term"
      },
      "value": [
        11
      ],
      "@type": "Measurement"
    },
    {
      "@type": "Measurement",
      "term": {
        "@type": "Term",
        "@id": "fallowCorrection",
        "name": "Fallow correction",
        "termType": "measurement",
        "units": "ratio"
      },
      "gapFilled": [
        "term",
        "value",
        "statsDefinition"
      ],
      "gapFilledVersion": [
        "0.3.1",
        "0.3.1",
        "0.3.1"
      ],
      "value": [
        1.0000000276420458
      ],
      "statsDefinition": "spatial"
    }
  ],
  "infrastructure": [
    {
      "term": {
        "@id": "tractor",
        "@type": "Term"
      },
      "lifespanHours": 12000,
      "mass": 2500,
      "@type": "Infrastructure"
    },
    {
      "term": {
        "@id": "cultivator",
        "@type": "Term"
      },
      "lifespanHours": 6000,
      "mass": 400,
      "@type": "Infrastructure"
    },
    {
      "term": {
        "@id": "seedDrill",
        "@type": "Term"
      },
      "lifespanHours": 2400,
      "mass": 400,
      "@type": "Infrastructure"
    },
    {
      "term": {
        "@id": "surfaceIrrigationEquipment",
        "@type": "Term"
      },
      "lifespanHours": 10500,
      "mass": 50,
      "@type": "Infrastructure"
    }
  ],
  "awareWaterBasinId": "7372"
}