{
  "@id": "PMWM-Z0AhtL",
  "@type": "Cycle",
  "name": "fake cycle",
  "functionalUnitMeasure": "1 ha",
  "defaultSource": {
    "@id": "5ihm4gitfjy",
    "@type": "Source"
  },
  "dataPrivate": false,
  "dataCompleteness": {
    "@type": "Completeness",
    "electricityFuel": true,
    "material": true,
    "fertilizer": true,
    "other": true,
    "pesticidesAntibiotics": true,
    "soilAmendments": true,
    "water": true,
    "products": true,
    "coProducts": true,
    "cropResidue": true,
    "manureManagement": true
  },
  "endDate": "2009-01-01",
  "cycleDuration": 150,
  "site": {
    "@id": "6glc42wZJE",
    "@type": "Site"
  },
  "products": [{
    "term": {
      "@id": "wheatGrain",
      "name": "Wheat, grain",
      "@type": "Term"
    },
    "value": [
      2231.5
    ],
    "@type": "Product"
  }]
}
