{
  "@id": "PMWM-Z0AhtL",
  "@type": "Cycle",
  "name": "fake cycle",
  "functionalUnitMeasure": "1 ha",
  "defaultSource": {
    "@id": "5ihm4gitfjy",
    "@type": "Source"
  },
  "dataPrivate": false,
  "dataCompleteness": {
    "@type": "Completeness",
    "electricityFuel": true,
    "material": true,
    "fertilizer": true,
    "other": false,
    "pesticidesAntibiotics": true,
    "soilAmendments": true,
    "water": true,
    "products": true,
    "coProducts": true,
    "cropResidue": true,
    "manureManagement": true
  },
  "endDate": "2009",
  "cycleDuration": 365,
  "site": {
    "@id": "6glc42wZJE",
    "@type": "Site"
  },
  "products": [
    {
      "term": {
        "@id": "hazelnutShells",
        "name": "Hazelnut, shells",
        "@type": "Term"
      },
      "value": [
        450.2
      ],
      "@type": "Product"
    }
  ],
  "practices": [
    {
      "term": {
        "@type": "Term",
        "name": "Residue burnt",
        "termType": "cropResidueManagement",
        "@id": "residueBurnt",
        "units": "percent"
      },
      "value": 0,
      "@type": "Practice"
    }
  ]
}
