[
  {
    "@type": "Practice",
    "term": {
      "@type": "Term",
      "@id": "nurseryDuration"
    },
    "gapFilled": [
      "value"
    ],
    "gapFilledVersion": [
      "0.3.1"
    ],
    "value": 547.5
  }
]