{
  "@id": "PMWM-Z0AhtL",
  "@type": "Cycle",
  "name": "fake cycle",
  "functionalUnitMeasure": "1 ha",
  "defaultSource": {
    "@id": "5ihm4gitfjy",
    "@type": "Source"
  },
  "dataPrivate": false,
  "dataCompleteness": {
    "@type": "Completeness",
    "electricityFuel": true,
    "material": true,
    "fertilizer": true,
    "other": true,
    "pesticidesAntibiotics": true,
    "soilAmendments": true,
    "water": true,
    "products": true,
    "coProducts": true,
    "cropResidue": false,
    "manureManagement": true
  },
  "endDate": "2009",
  "cycleDuration": 365,
  "site": {
    "@id": "6glc42wZJE",
    "@type": "Site"
  },
  "inputs": [
    {
      "@type": "Input",
      "term": {
        "@type": "Term",
        "@id": "irrigationIrrigationCanal",
        "termType": "water"
      },
      "value": [
        300
      ]
    }
  ],
  "practices": [
    {
      "@type": "Practice",
      "term": {
        "@id": "irrigated",
        "@type": "Term",
        "termType": "waterRegime"
      },
      "gapFilled": [
        "term"
      ],
      "gapFilledVersion": [
        "-1.0.0"
      ]
    }
  ]
}
