{
  "@context": "https://www-staging.hestia.earth/schema/ImpactAssessment.jsonld",
  "@id": "OI1eLasgXP",
  "@type": "ImpactAssessment",
  "allocationMethod": "noneRequired",
  "country": {
    "@id": "GADM-AUS",
    "@type": "Term",
    "name": "Australia"
  },
  "cycle": {
    "@id": "aecELskFDJ",
    "@type": "Cycle",
    "practices": [
      {
        "@type": "Practice",
        "term": {
          "@id": "organic",
          "@type": "Term",
          "name": "Organic",
          "termType": "standardsLabels"
        }
      }
    ]
  },
  "site": {
    "@id": "hDrjhZBeFH",
    "@type": "Site"
  },
  "endDate": "2010",
  "functionalUnitMeasure": "kg",
  "functionalUnitQuantity": 1,
  "product": {
    "@id": "wheatGrain",
    "@type": "Term"
  },
  "source": {
    "@id": "hcj4srq267",
    "@type": "Source"
  },
  "systemBoundary": false,
  "dataPrivate": false
}
