[
  {
    "@type": "Measurement",
    "term": {
      "@type": "Term",
      "@id": "erodibility"
    },
    "value": [
      0.015795238429152186
    ],
    "statsDefinition": "spatial",
    "gapFilled": [
      "value",
      "statsDefinition"
    ],
    "gapFilledVersion": [
      "0.3.1",
      "0.3.1"
    ]
  }
]
