{
  "@id": "sdchwm0fva1g",
  "@type": "Site",
  "latitude": -18.208,
  "longitude": -69.289,
  "numberOfSites": 11,
  "siteType": "cropland",
  "country": {
    "@type": "Term",
    "name": "Chile",
    "termType": "region",
    "@id": "GADM-CHL"
  },
  "defaultSource": {
    "@id": "nm1itsafzvjo",
    "@type": "Source"
  },
  "measurements": [
    {
      "value": [
        150
      ],
      "term": {
        "@type": "Term",
        "name": "Rainfall (long-term annual mean)",
        "termType": "measurement",
        "@id": "rainfallLong-TermAnnualMean",
        "units": "mm"
      },
      "@type": "Measurement"
    },
    {
      "value": [
        19.1
      ],
      "term": {
        "@type": "Term",
        "name": "Temperature (long-term annual mean)",
        "termType": "measurement",
        "@id": "temperatureLong-TermAnnualMean",
        "units": "degrees Celsius"
      },
      "@type": "Measurement"
    },
    {
      "value": [
        26.1
      ],
      "term": {
        "@type": "Term",
        "name": "Solar radiation (long-term annual mean)",
        "termType": "measurement",
        "@id": "solarRadiationLong-TermAnnualMean",
        "units": "MJ / m2 / d"
      },
      "@type": "Measurement"
    },
    {
      "value": [
        2500
      ],
      "term": {
        "@type": "Term",
        "name": "Altitude",
        "termType": "measurement",
        "@id": "altitude",
        "units": "meters"
      },
      "@type": "Measurement"
    }
  ],
  "region": {
    "@type": "Term",
    "name": "Putre",
    "termType": "region",
    "@id": "GADM-CHL.4.2.2_1"
  },
  "schemaVersion": "2.13.0",
  "name": "Cropland - Putre, Chile",
  "originalId": "1",
  "dataPrivate": false
}
