[
  {
    "@type": "Measurement",
    "term": {
      "@type": "Term",
      "@id": "soilTotalNitrogenContent"
    },
    "value": [
      864.0000224113464
    ],
    "depthUpper": 0,
    "depthLower": 50,
    "statsDefinition": "spatial",
    "gapFilled": [
      "value",
      "statsDefinition",
      "depthUpper",
      "depthLower"
    ],
    "gapFilledVersion": [
      "0.3.1",
      "0.3.1",
      "0.3.1",
      "0.3.1"
    ]
  }
]
