{
  "@id": "uggs11ymvtdb",
  "@type": "Cycle",
  "site": {
    "@id": "67uwj1qlt-ux",
    "@type": "Site"
  },
  "defaultSource": {
    "@id": "3vcjuxie_5ip",
    "@type": "Source"
  },
  "endDate": "2011",
  "cycleDuration": 730,
  "functionalUnitMeasure": "1 ha",
  "dataCompleteness": {
    "electricityFuel": false,
    "material": false,
    "fertilizer": true,
    "other": true,
    "pesticidesAntibiotics": true,
    "soilAmendments": false,
    "water": true,
    "products": true,
    "coProducts": true,
    "cropResidue": false,
    "manureManagement": true,
    "@type": "Completeness"
  },
  "startDate": "2009",
  "startDateDefinition": "harvest of previous crop",
  "description": "Conventional",
  "products": [
    {
      "term": {
        "@type": "Term",
        "name": "Potato, tuber",
        "termType": "crop",
        "@id": "potatoTuber",
        "units": "kg"
      },
      "value": [
        22000
      ],
      "economicValueShare": 100,
      "reliability": 4,
      "primary": true,
      "@type": "Product"
    }
  ],
  "inputs": [
    {
      "term": {
        "@type": "Term",
        "name": "Seed",
        "termType": "other",
        "@id": "seed",
        "units": "kg"
      },
      "reliability": 4,
      "value": [
        3000
      ],
      "@type": "Input"
    },
    {
      "term": {
        "@type": "Term",
        "name": "Organic fertilizer, unspecified (kg mass)",
        "termType": "organicFertilizer",
        "@id": "organicFertilizerUnspecifiedKgMass",
        "units": "kg"
      },
      "value": [
        20000
      ],
      "reliability": 4,
      "@type": "Input"
    },
    {
      "term": {
        "@type": "Term",
        "name": "Inorganic Nitrogen fertilizer, unspecified (as N)",
        "termType": "inorganicFertilizer",
        "@id": "inorganicNitrogenFertilizerUnspecifiedAsN",
        "units": "kg N"
      },
      "value": [
        90
      ],
      "reliability": 4,
      "@type": "Input"
    },
    {
      "term": {
        "@type": "Term",
        "name": "Inorganic Phosphorus fertilizer, unspecified (as P2O5)",
        "termType": "inorganicFertilizer",
        "@id": "inorganicPhosphorusFertilizerUnspecifiedAsP2O5",
        "units": "kg P2O5"
      },
      "value": [
        80.19637438
      ],
      "description": "Assumed data in kg P, and converted from P to P2O5",
      "reliability": 5,
      "@type": "Input"
    },
    {
      "term": {
        "@type": "Term",
        "name": "Inorganic Potassium fertilizer, unspecified (as K2O)",
        "termType": "inorganicFertilizer",
        "@id": "inorganicPotassiumFertilizerUnspecifiedAsK2O",
        "units": "kg K2O"
      },
      "value": [
        144.552151
      ],
      "description": "Assumed data in kg K, and converted from K to K2O",
      "reliability": 5,
      "@type": "Input"
    },
    {
      "term": {
        "@type": "Term",
        "name": "Herbicide unspecified (AI)",
        "termType": "pesticideAI",
        "@id": "herbicideUnspecifiedAi",
        "units": "kg active ingredient"
      },
      "value": [
        1.5
      ],
      "reliability": 4,
      "@type": "Input"
    },
    {
      "term": {
        "@type": "Term",
        "name": "Fungicide unspecified (AI)",
        "termType": "pesticideAI",
        "@id": "fungicideUnspecifiedAi",
        "units": "kg active ingredient"
      },
      "value": [
        8
      ],
      "reliability": 4,
      "@type": "Input"
    },
    {
      "term": {
        "@type": "Term",
        "name": "Insecticide unspecified (AI)",
        "termType": "pesticideAI",
        "@id": "insecticideUnspecifiedAi",
        "units": "kg active ingredient"
      },
      "value": [
        0.2
      ],
      "reliability": 4,
      "@type": "Input"
    }
  ],
  "emissions": [
    {
      "term": {
        "@type": "Term",
        "name": "N2O, to air, fertilizer, direct",
        "termType": "emission",
        "@id": "n2OToAirFertilizerDirect",
        "units": "kg N2O"
      },
      "value": [
        2.77
      ],
      "methodTier": "tier 1",
      "method": {
        "@type": "Term",
        "name": "N2O, to air, fertilizer and excreta, direct and indirect, IPCC (2006)",
        "termType": "model",
        "@id": "n2OToAirFertilizerAndExcretaDirectAndIndirectIpcc2006",
        "units": "kg N2O"
      },
      "@type": "Emission"
    },
    {
      "term": {
        "@type": "Term",
        "name": "N2O, to air, fertilizer, indirect",
        "termType": "emission",
        "@id": "n2OToAirFertilizerIndirect",
        "units": "kg N2O"
      },
      "value": [
        1.11
      ],
      "methodTier": "tier 1",
      "method": {
        "@type": "Term",
        "name": "N2O, to air, fertilizer and excreta, direct and indirect, IPCC (2006)",
        "termType": "model",
        "@id": "n2OToAirFertilizerAndExcretaDirectAndIndirectIpcc2006",
        "units": "kg N2O"
      },
      "@type": "Emission"
    }
  ],
  "schemaVersion": "2.13.0",
  "name": "Potato, tuber - Czech Republic - 2011 - Conventional",
  "dataDescription": "Modelled N2O emissions. Partial data on inputs and products. No site measurements.",
  "originalId": "1",
  "dataPrivate": false
}
