{
  "fields": [
    "@id"
  ],
  "limit": 1000,
  "query": {
    "bool": {
      "must": [
        {
          "match": {
            "@type": "Term"
          }
        },
        {
          "match": {
            "termType": "fuel"
          }
        }
      ],
      "should": [
        {
          "regexp": {
            "name": "gasoline*"
          }
        },
        {
          "regexp": {
            "name": "diesel*"
          }
        }
      ],
      "minimum_should_match": 1
    }
  }
}
