{
  "@id": "fake_site",
  "@type": "Site",
  "defaultSource": {
    "@id": "fake_source",
    "@type": "Source"
  },
  "dataPrivate": false,
  "name": "Field -27.515, 150.547",
  "country": {
    "@id": "GADM-BRA",
    "@type": "Term",
    "name": "Brazil"
  },
  "latitude": -27.515,
  "longitude": 150.547,
  "siteType": "cropland"
}
