{
  "@id": "q7KmCRO3Xcs",
  "@type": "Cycle",
  "name": "fake cycle",
  "dataPrivate": false,
  "functionalUnitMeasure": "1 ha",
  "dataCompleteness": {
    "@type": "Completeness",
    "electricityFuel": true,
    "material": true,
    "fertilizer": true,
    "other": true,
    "pesticidesAntibiotics": true,
    "soilAmendments": true,
    "water": true,
    "products": true,
    "coProducts": true,
    "cropResidue": true,
    "manureManagement": true
  },
  "startDate": "2020-12-10",
  "startDateDefinition": "sowing date",
  "endDate": "2012",
  "numberOfCycles": 2,
  "cycleDuration": 182,
  "description": "Conventional tillage",
  "defaultSource": {
    "@id": "pgjz6eofzlw",
    "@type": "Source"
  },
  "site": {
    "@id": "6Tjhe8tLzKx",
    "@type": "Site",
    "siteType": "cropland",
    "defaultSource": {
      "@id": "pgjz6eofzlw",
      "@type": "Source"
    },
    "country": {
      "@id": "GADM-NPL",
      "@type": "Term",
      "name": "Nepal"
    },
    "dataPrivate": false,
    "region": {
      "@id": "GADM-NPL.1.3.1.74_1",
      "@type": "Term",
      "name": "Pheta"
    },
    "description": "Farmers field",
    "measurements": [
      {
        "term": {
          "@id": "soilPh",
          "@type": "Term"
        },
        "value": [
          5.7
        ],
        "@type": "Measurement"
      },
      {
        "term": {
          "@id": "soilOrganicMatterContent",
          "@type": "Term"
        },
        "value": [
          4.98
        ],
        "@type": "Measurement"
      },
      {
        "term": {
          "@id": "soilTotalNitrogenContent",
          "@type": "Term"
        },
        "value": [
          2409.9999999999995
        ],
        "@type": "Measurement"
      },
      {
        "term": {
          "@id": "clayContent",
          "@type": "Term"
        },
        "value": [
          8
        ],
        "depthLower": 30,
        "depthUpper": 0,
        "@type": "Measurement"
      },
      {
        "term": {
          "@id": "sandContent",
          "@type": "Term"
        },
        "value": [
          81
        ],
        "depthLower": 30,
        "depthUpper": 0,
        "@type": "Measurement"
      },
      {
        "term": {
          "@id": "siltContent",
          "@type": "Term"
        },
        "value": [
          11
        ],
        "depthLower": 30,
        "depthUpper": 0,
        "@type": "Measurement"
      },
      {
        "term": {
          "@id": "soilOrganicCarbonContent",
          "@type": "Term"
        },
        "value": [
          0.58
        ],
        "depthLower": 30,
        "depthUpper": 0,
        "@type": "Measurement"
      },
      {
        "term": {
          "@id": "soilPhosphorusContent",
          "@type": "Term"
        },
        "value": [
          352.75
        ],
        "depthLower": 50,
        "depthUpper": 0,
        "@type": "Measurement"
      },
      {
        "term": {
          "@id": "slopeLength",
          "@type": "Term"
        },
        "value": [
          2.06439
        ],
        "@type": "Measurement"
      },
      {
        "term": {
          "@id": "slope",
          "@type": "Term"
        },
        "value": [
          0
        ],
        "@type": "Measurement"
      },
      {
        "term": {
          "@id": "drainageClass",
          "@type": "Term"
        },
        "value": [
          4
        ],
        "@type": "Measurement"
      },
      {
        "term": {
          "@id": "nutrientLossToAquaticEnvironment",
          "@type": "Term"
        },
        "value": [
          15
        ],
        "@type": "Measurement"
      },
      {
        "term": {
          "@id": "erodibility",
          "@type": "Term"
        },
        "value": [
          0.03287
        ],
        "@type": "Measurement"
      },
      {
        "term": {
          "@id": "rainfallAnnual",
          "@type": "Term"
        },
        "value": [
          1481
        ],
        "@type": "Measurement"
      },
      {
        "term": {
          "@id": "temperatureAnnual",
          "@type": "Term"
        },
        "value": [
          24.533333
        ],
        "@type": "Measurement"
      },
      {
        "term": {
          "@id": "eco-ClimateZone",
          "@type": "Term"
        },
        "value": [
          11
        ],
        "@type": "Measurement"
      }
    ],
    "infrastructure": [
      {
        "term": {
          "@id": "tractor",
          "@type": "Term"
        },
        "lifespanHours": 12000,
        "mass": 2500,
        "@type": "Infrastructure"
      },
      {
        "term": {
          "@id": "cultivator",
          "@type": "Term"
        },
        "lifespanHours": 6000,
        "mass": 400,
        "@type": "Infrastructure"
      },
      {
        "term": {
          "@id": "seedDrill",
          "@type": "Term"
        },
        "lifespanHours": 2400,
        "mass": 400,
        "@type": "Infrastructure"
      },
      {
        "term": {
          "@id": "surfaceIrrigationEquipment",
          "@type": "Term"
        },
        "lifespanHours": 10500,
        "mass": 50,
        "@type": "Infrastructure"
      }
    ]
  },
  "products": [
    {
      "term": {
        "@id": "wheatGrain",
        "@type": "Term",
        "name": "Wheat, grain"
      },
      "value": [
        2231.5
      ],
      "properties": [
        {
          "term": {
            "@id": "dryMatter",
            "@type": "Term"
          },
          "value": 88,
          "@type": "Property"
        },
        {
          "@type": "Property",
          "term": {
            "@id": "rootingDepth",
            "@type": "Term",
            "name": "Rooting Depth"
          },
          "value": 1.25,
          "gapFilled": [
            "value"
          ],
          "gapFilledVersion": [
            "0.3.1"
          ]
        }
      ],
      "@type": "Product",
      "primary": true,
      "price": 14.7264037,
      "gapFilled": [
        "value"
      ],
      "gapFilledVersion": [
        "0.3.1"
      ],
      "revenue": 32861.96985655,
      "economicValueShare": 91.18
    },
    {
      "term": {
        "@id": "wheatStraw",
        "@type": "Term",
        "name": "Wheat, straw"
      },
      "value": [
        2728.5
      ],
      "@type": "Product",
      "economicValueShare": 8.82,
      "gapFilled": [
        "value"
      ],
      "gapFilledVersion": [
        "0.3.1"
      ],
      "properties": [
        {
          "@type": "Property",
          "term": {
            "@context": "https://www.hestia.earth/schema/Term.jsonld",
            "@id": "rootingDepth",
            "@type": "Term",
            "name": "Rooting depth",
            "units": "meters",
            "definition": "The rooting depth of the crop.",
            "termType": "property"
          },
          "gapFilled": [
            "value"
          ],
          "value": 1.25,
          "gapFilledVersion": [
            "0.3.1"
          ]
        }
      ]
    },
    {
      "term": {
        "@id": "aboveGroundCropResidueTotal",
        "@type": "Term",
        "name": "Above ground crop residue, total"
      },
      "value": [
        130.68078947368434
      ],
      "properties": [
        {
          "term": {
            "@id": "nitrogenContent",
            "@type": "Term"
          },
          "value": 0.6,
          "@type": "Property"
        }
      ],
      "@type": "Product"
    },
    {
      "term": {
        "@id": "aboveGroundCropResidueBurnt",
        "@type": "Term",
        "name": "Above ground crop residue, total"
      },
      "value": [
        0
      ],
      "@type": "Product"
    },
    {
      "@type": "Product",
      "term": {
        "@id": "aboveGroundCropResidueRemoved",
        "@type": "Term"
      },
      "value": [
        1337
      ],
      "gapFilled": [
        "value"
      ],
      "gapFilledVersion": [
        "0.3.1"
      ]
    },
    {
      "term": {
        "@id": "aboveGroundCropResidueLeftOnField",
        "@type": "Term",
        "name": "Above ground crop residue, left on field"
      },
      "value": [
        6.534039
      ],
      "@type": "Product"
    },
    {
      "term": {
        "@id": "belowGroundCropResidue",
        "@type": "Term",
        "name": "Below ground crop residue"
      },
      "value": [
        1307.744928
      ],
      "properties": [
        {
          "term": {
            "@id": "nitrogenContent",
            "@type": "Term"
          },
          "value": 0.8999999999999999,
          "@type": "Property"
        }
      ],
      "@type": "Product"
    },
    {
      "term": {
        "@id": "aboveGroundCropResidueIncorporated",
        "@type": "Term",
        "name": "Above ground crop residue, incorporated"
      },
      "value": [
        13.068078947368434
      ],
      "@type": "Product"
    }
  ],
  "practices": [
    {
      "term": {
        "@id": "previousProduct",
        "@type": "Term",
        "name": "Previous Product"
      },
      "value": "Rice, grain",
      "@type": "Practice"
    },
    {
      "term": {
        "@id": "fullTillage",
        "@type": "Term",
        "name": "Full tillage"
      },
      "@type": "Practice"
    },
    {
      "term": {
        "@id": "numberOfTillages",
        "@type": "Term",
        "name": "Number of tillages"
      },
      "value": "2",
      "@type": "Practice"
    },
    {
      "term": {
        "@id": "directSeeded-Broadcasted",
        "@type": "Term",
        "name": "Direct seeded - broadcasted"
      },
      "@type": "Practice"
    },
    {
      "term": {
        "@id": "seedDepth",
        "@type": "Term",
        "name": "Seed depth"
      },
      "value": "0",
      "@type": "Practice"
    },
    {
      "term": {
        "@id": "numberOfIrrigations",
        "@type": "Term",
        "name": "Number of irrigations"
      },
      "value": "3",
      "@type": "Practice"
    },
    {
      "term": {
        "@id": "residueIncorporated",
        "@type": "Term",
        "name": "Residue incorporated"
      },
      "value": "10",
      "@type": "Practice"
    },
    {
      "term": {
        "@id": "residueRemoved",
        "@type": "Term",
        "name": "Residue removed"
      },
      "value": "95",
      "@type": "Practice"
    },
    {
      "term": {
        "@id": "residueBurnt",
        "@type": "Term",
        "name": "Residue burnt"
      },
      "value": "0",
      "@type": "Practice"
    },
    {
      "term": {
        "@id": "longFallowPeriod",
        "@type": "Term",
        "name": "Long Fallow Period"
      },
      "value": "0",
      "@type": "Practice"
    }
  ],
  "inputs": [
    {
      "term": {
        "@id": "seed",
        "@type": "Term",
        "name": "Seed"
      },
      "value": [
        120
      ],
      "@type": "Input"
    },
    {
      "term": {
        "@id": "ureaAsN",
        "@type": "Term",
        "name": "Urea (as N)"
      },
      "value": [
        50,
        25,
        25
      ],
      "@type": "Input"
    },
    {
      "term": {
        "@id": "tripleSuperPhosphateAsP2O5",
        "@type": "Term",
        "name": "Triple Super Phosphate (as P2O5)"
      },
      "value": [
        60
      ],
      "@type": "Input"
    },
    {
      "term": {
        "@id": "potassiumChlorideAsK2O",
        "@type": "Term",
        "name": "Potassium Chloride (as K2O)"
      },
      "value": [
        40
      ],
      "@type": "Input"
    },
    {
      "term": {
        "@id": "irrigationPumpedGroundWater",
        "@type": "Term",
        "name": "Irrigation, Pumped ground water"
      },
      "value": [
        114.5
      ],
      "@type": "Input"
    },
    {
      "term": {
        "@id": "CAS-34123-59-6",
        "@type": "Term",
        "name": "N,N-Dimethyl-N'-[4-(1-methylethyl)phenyl]urea"
      },
      "value": [
        900
      ],
      "@type": "Input"
    },
    {
      "term": {
        "@id": "CAS-94-75-7",
        "@type": "Term",
        "name": "2-(2,4-Dichlorophenoxy)acetic acid"
      },
      "value": [
        900
      ],
      "@type": "Input"
    },
    {
      "term": {
        "@id": "diesel",
        "@type": "Term",
        "name": "Diesel"
      },
      "description": "For tractor",
      "value": [
        24.900375
      ],
      "@type": "Input"
    },
    {
      "term": {
        "@id": "diesel",
        "@type": "Term",
        "name": "Diesel"
      },
      "description": "For irrigation",
      "value": [
        49.5075
      ],
      "@type": "Input"
    },
    {
      "term": {
        "@id": "machineryInfrastructureDepreciatedAmountPerCycle",
        "@type": "Term",
        "name": "Machinery infrastructure, depreciated amount per Cycle"
      },
      "value": [
        2.6104166666666666
      ],
      "@type": "Input"
    }
  ],
  "emissions": [
    {
      "term": {
        "@id": "co2ToAirFuelCombustion",
        "@type": "Term",
        "name": "CO2, to air, machinery fuel combustion"
      },
      "value": [
        224.32
      ],
      "methodTier": "tier 1",
      "method": {
        "@id": "co2ToAirFuelCombustionEmea-Eea2019",
        "@type": "Term",
        "name": "CO2, to air, fuel combustion, EMEA-EEA (2019)"
      },
      "@type": "Emission"
    }
  ]
}
