[
  {
    "@type": "Product",
    "term": {
      "@id": "aboveGroundCropResidueTotal",
      "@type": "Term"
    },
    "value": [
      3485.2172
    ],
    "gapFilled": [
      "value"
    ],
    "gapFilledVersion": [
      "0.3.1"
    ]
  }
]