{
  "@id": "PMWM-Z0AhtL",
  "@type": "Cycle",
  "name": "fake cycle",
  "functionalUnitMeasure": "1 ha",
  "defaultSource": {
    "@id": "5ihm4gitfjy",
    "@type": "Source"
  },
  "dataPrivate": false,
  "dataCompleteness": {
    "@type": "Completeness",
    "electricityFuel": true,
    "material": true,
    "fertilizer": true,
    "other": true,
    "pesticidesAntibiotics": true,
    "soilAmendments": true,
    "water": true,
    "products": true,
    "coProducts": true,
    "cropResidue": false,
    "manureManagement": true
  },
  "endDate": "2009",
  "cycleDuration": 365,
  "site": {
    "@id": "6glc42wZJE",
    "@type": "Site"
  },
  "products": [
    {
      "term": {
        "@id": "wheatGrain",
        "name": "Wheat, grain",
        "@type": "Term"
      },
      "value": [
        2231.5
      ],
      "properties": [
        {
          "term": {
            "@id": "dryMatter",
            "@type": "Term"
          },
          "value": 88,
          "@type": "Property"
        }
      ],
      "@type": "Product",
      "primary": true
    },
    {
      "@type": "Product",
      "term": {
        "@id": "aboveGroundCropResidueTotal",
        "@type": "Term"
      },
      "value": [
        2965.7372
      ],
      "gapFilled": ["value"],
      "gapFilledVersion": ["-1.0.0"]
    }
  ]
}
