{
  "@id": "8h8k6-cuys6y",
  "@type": "Cycle",
  "site": {
    "@id": "tccrtglnkw7-",
    "@type": "Site"
  },
  "defaultSource": {
    "@id": "rdnjnmrntrn9",
    "@type": "Source"
  },
  "endDate": "2006-05-01",
  "functionalUnitMeasure": "1 ha",
  "startDate": "2005-05-01",
  "startDateDefinition": "sowing date",
  "dataCompleteness": {
    "fertilizer": false,
    "soilAmendments": true,
    "pesticidesAntibiotics": false,
    "water": true,
    "electricityFuel": false,
    "products": true,
    "coProducts": true,
    "cropResidue": true,
    "manureManagement": false,
    "other": false,
    "material": false,
    "@type": "Completeness",
    "gapFilled": [
      "cropResidue"
    ],
    "gapFilledVersion": [
      "0.3.1"
    ]
  },
  "practices": [
    {
      "term": {
        "@type": "Term",
        "name": "Residue burnt",
        "termType": "cropResidueManagement",
        "@id": "residueBurnt",
        "units": "percent"
      },
      "value": 0,
      "@type": "Practice"
    },
    {
      "@type": "Practice",
      "term": {
        "@type": "Term",
        "@id": "residueLeftOnField",
        "name": "Residue left on field",
        "termType": "cropResidueManagement",
        "units": "percent"
      },
      "gapFilled": [
        "term",
        "value"
      ],
      "gapFilledVersion": [
        "0.3.1",
        "0.3.1"
      ],
      "value": 100.0
    }
  ],
  "inputs": [
    {
      "@type": "Input",
      "term": {
        "@type": "Term",
        "@id": "seed",
        "name": "Seed",
        "termType": "other",
        "units": "kg"
      },
      "gapFilled": [
        "term",
        "value",
        "sd",
        "statsDefinition"
      ],
      "gapFilledVersion": [
        "0.3.1",
        "0.3.1",
        "0.3.1",
        "0.3.1"
      ],
      "value": [
        134.19
      ],
      "statsDefinition": "regions",
      "sd": [
        0.0304
      ]
    },
    {
      "term": {
        "@type": "Term",
        "name": "Single Super Phosphate (as P2O5)",
        "termType": "inorganicFertilizer",
        "@id": "singleSuperPhosphateAsP2O5",
        "units": "kg P2O5"
      },
      "@type": "Input"
    },
    {
      "term": {
        "@type": "Term",
        "name": "Urea (as N)",
        "termType": "inorganicFertilizer",
        "@id": "ureaAsN",
        "units": "kg N"
      },
      "value": [
        25,
        75
      ],
      "date": [
        "2005-05-01",
        "2005-06-12"
      ],
      "@type": "Input"
    }
  ],
  "products": [
    {
      "@type": "Product",
      "term": {
        "@type": "Term",
        "@id": "aboveGroundCropResidueLeftOnField",
        "name": "Above ground crop residue, left on field",
        "termType": "cropResidue",
        "units": "kg dry matter"
      },
      "primary": false,
      "gapFilled": [
        "term",
        "value"
      ],
      "gapFilledVersion": [
        "0.3.1",
        "0.3.1"
      ],
      "value": [
        4066.9900000000002
      ]
    },
    {
      "@type": "Product",
      "term": {
        "@type": "Term",
        "@id": "aboveGroundCropResidueTotal",
        "name": "Above ground crop residue, total",
        "termType": "cropResidue",
        "units": "kg dry matter"
      },
      "primary": false,
      "gapFilled": [
        "term",
        "value"
      ],
      "gapFilledVersion": [
        "0.3.1",
        "0.3.1"
      ],
      "value": [
        4066.9900000000002
      ],
      "properties": [
        {
          "@type": "Property",
          "term": {
            "@type": "Term",
            "@id": "nitrogenContent",
            "name": "Nitrogen content",
            "termType": "property",
            "units": "%"
          },
          "gapFilled": [
            "term",
            "value"
          ],
          "gapFilledVersion": [
            "0.3.1",
            "0.3.1"
          ],
          "value": 0.6
        }
      ]
    },
    {
      "@type": "Product",
      "term": {
        "@type": "Term",
        "@id": "belowGroundCropResidue",
        "name": "Below ground crop residue",
        "termType": "cropResidue",
        "units": "kg dry matter"
      },
      "primary": false,
      "gapFilled": [
        "term",
        "value"
      ],
      "gapFilledVersion": [
        "0.3.1",
        "0.3.1"
      ],
      "value": [
        1539.8375999999998
      ],
      "properties": [
        {
          "@type": "Property",
          "term": {
            "@type": "Term",
            "@id": "nitrogenContent",
            "name": "Nitrogen content",
            "termType": "property",
            "units": "%"
          },
          "gapFilled": [
            "term",
            "value"
          ],
          "gapFilledVersion": [
            "0.3.1",
            "0.3.1"
          ],
          "value": 0.9
        }
      ]
    },
    {
      "term": {
        "@type": "Term",
        "name": "Wheat, grain",
        "termType": "crop",
        "@id": "wheatGrain",
        "units": "kg"
      },
      "value": [
        2700
      ],
      "primary": true,
      "@type": "Product",
      "price": 0.2383928571,
      "gapFilled": [
        "price",
        "revenue",
        "economicValueShare"
      ],
      "gapFilledVersion": [
        "0.3.1",
        "0.3.1",
        "0.3.1"
      ],
      "revenue": 643.66071417,
      "economicValueShare": 91.18,
      "properties": [
        {
          "@type": "Property",
          "term": {
            "@type": "Term",
            "@id": "rootingDepth",
            "name": "Rooting depth",
            "termType": "property",
            "units": "meters"
          },
          "gapFilled": [
            "term",
            "value"
          ],
          "gapFilledVersion": [
            "0.3.1",
            "0.3.1"
          ],
          "value": 1.6
        }
      ]
    }
  ],
  "emissions": [
    {
      "term": {
        "@type": "Term",
        "name": "CO2, to air, lime hydrolysis",
        "termType": "emission",
        "@id": "co2ToAirLimeHydrolysis",
        "units": "kg CO2"
      },
      "value": [
        218.7
      ],
      "methodTier": "tier 1",
      "method": {
        "@type": "Term",
        "name": "CO2, to air, lime and urea, IPCC (2006)",
        "termType": "model",
        "@id": "co2ToAirLimeAndUreaIpcc2006",
        "units": "kg CO2"
      },
      "@type": "Emission"
    },
    {
      "term": {
        "@type": "Term",
        "name": "N2O, to air, all origins",
        "termType": "emission",
        "@id": "n2OToAirAllOrigins",
        "units": "kg N2O"
      },
      "value": [
        0.172857
      ],
      "methodTier": "measured",
      "source": {
        "@id": "8eq4npppy9yd",
        "@type": "Source"
      },
      "@type": "Emission"
    }
  ],
  "cycleDuration": 365,
  "name": "Wheat, grain - Cunderdin, Australia - 2006-05-01",
  "dataDescription": "Measured and modelled emissions. Partial data on inputs and products. Site measurements available.",
  "schemaVersion": "2.14.0",
  "originalId": "1",
  "dataPrivate": false
}
